<svg xmlns="http://www.w3.org/2000/svg" width="73" height="45" viewBox="0 0 73 45">
  <path  d="M71.486,19.179L50.849,0.682a4.565,4.565,0,1,0-6.1,6.794L55.982,17.538H4.565a4.561,4.561,0,1,0,0,9.122h51.9L44.86,36.4a4.564,4.564,0,1,0,5.876,6.985l20.637-17.32A4.562,4.562,0,0,0,73,22.646,4.791,4.791,0,0,0,71.486,19.179Z"/>
</svg>
