<svg xmlns="http://www.w3.org/2000/svg" width="427" height="512" viewBox="0 0 427 512">
  <path d="M384.3,192a42.477,42.477,0,0,0-21.621,5.885A42.643,42.643,0,0,0,292.8,170.052a42.675,42.675,0,0,0-57.951-14.99V42.667a42.7,42.7,0,0,0-85.4,0V328.146A10.68,10.68,0,0,1,134,337.688l-68.554-34.25A45.228,45.228,0,0,0,0,343.855V352a10.693,10.693,0,0,0,3.388,7.8L126.6,474.708A138.434,138.434,0,0,0,221.287,512h66.937C364.742,512,427,449.792,427,373.333V234.667A42.725,42.725,0,0,0,384.3,192Z"/>
</svg>
